Tidy simulation
…
Aside: the standard way of assessing hand strength is via high-card points: 4 for an ace, 3 for a king, 2 for a queen and one for a jack. All the other cards count zero. To simulate the number of points you might get in a hand, build a deck with the points for each card. There are four cards of each rank, and nine ranks that are worth no points:

deck <- c(rep(4,4), rep(3,4),
          rep(2,4), rep(1,4), rep(0, 36))

The simulation process after that is a lot like before:

tibble(sim = 1:1000) %>% 
  rowwise() %>% 
  mutate(hand = list(sample(deck, 13, replace = FALSE))) %>% 
  mutate(points = sum(hand)) -> d
d

# A tibble: 1,000 × 3
# Rowwise: 
     sim hand       points
   <int> <list>      <dbl>
 1     1 <dbl [13]>     13
 2     2 <dbl [13]>     10
 3     3 <dbl [13]>     11
 4     4 <dbl [13]>      4
 5     5 <dbl [13]>      4
 6     6 <dbl [13]>      6
 7     7 <dbl [13]>     13
 8     8 <dbl [13]>      1
 9     9 <dbl [13]>     13
10    10 <dbl [13]>      7
# … with 990 more rows
…
A bit of a rarity, less than a 2% shot.

Bootstrapping a sampling distribution

To return to the messy world of actual applied statistics: there are a lot of procedures based on an assumption of the right things having normal distributions.8 One of the commonest questions is whether we should be using the normal-theory procedure or something else (non-parametric, maybe). Let’s take an example. The data here are information about Toronto Blue Jays baseball games from the early part of the 2015 season:

my_url <- "http://ritsokiguess.site/datafiles/jays15-home.csv"
jays <- read_csv(my_url)
jays

# A tibble: 25 × 21
     row  game date      box    team  venue opp   result  runs Oppruns
   <dbl> <dbl> <chr>     <chr>  <chr> <lgl> <chr> <chr>  <dbl>   <dbl>
 1    82     7 Monday, … boxsc… TOR   NA    TBR   L          1       2
 2    83     8 Tuesday,… boxsc… TOR   NA    TBR   L          2       3
 3    84     9 Wednesda… boxsc… TOR   NA    TBR   W         12       7
 4    85    10 Thursday… boxsc… TOR   NA    TBR   L          2       4
 5    86    11 Friday, … boxsc… TOR   NA    ATL   L          7       8
 6    87    12 Saturday… boxsc… TOR   NA    ATL   W-wo       6       5
 7    88    13 Sunday, … boxsc… TOR   NA    ATL   L          2       5
 8    89    14 Tuesday,… boxsc… TOR   NA    BAL   W         13       6
 9    90    15 Wednesda… boxsc… TOR   NA    BAL   W          4       2
10    91    16 Thursday… boxsc… TOR   NA    BAL   W          7       6
# … with 15 more rows, and 11 more variables: innings <dbl>,
#   wl <chr>, position <dbl>, gb <chr>, winner <chr>, loser <chr>,
#   save <chr>, game time <time>, Daynight <chr>, attendance <dbl>,
#   streak <chr>
…
but the bootstrap sample has a mean of

mean(s)

[1] 23946.44

different; if we were to take more bootstrap samples, and find the mean of each one, we would get a sense of the sampling distribution of the sample mean. That is to say, we simulate the bootstrapped sampling distribution of the sample mean. Given what we’ve seen in the other simulations, the structure of the code below ought to come as no surprise:

tibble(sim = 1:1000) %>% 
  rowwise() %>% 
  mutate(s = list(sample(jays$attendance, replace = TRUE))) %>% 
  mutate(m = mean(s)) -> d
d

# A tibble: 1,000 × 3
# Rowwise: 
     sim s               m
   <int> <list>      <dbl>
 1     1 <dbl [25]> 22328.
 2     2 <dbl [25]> 29364.
 3     3 <dbl [25]> 24194.
 4     4 <dbl [25]> 22907.
 5     5 <dbl [25]> 22604.
 6     6 <dbl [25]> 22905.
 7     7 <dbl [25]> 23957.
 8     8 <dbl [25]> 23567.
 9     9 <dbl [25]> 24944.
10    10 <dbl [25]> 27150.
# … with 990 more rows
…
