Honestly Significant Differences
…
To learn more, standard procedure is to run some kind of followup. One way is to compare each pair of groups with a two-sample \(t\)-test. A problem with that is if you have \(k\) groups, you have \(k(k-1)/2\) pairs of groups, so you have that many two-sample \(t\)-tests all run at once, and you need to do something about the multiple testing. How can you avoid that?

An example

One of the benefits of exercise is that it stresses bones and makes them stronger. Researchers at Purdue did a study in which they randomly assigned rats to one of three exercise groups (“high jumping”, “low jumping” and a control group that was not made to do any jumping). The rats were made to do 10 jumps a day, 5 days a week, for 8 weeks, and at the end of this time each rat’s bone density was measured. Did the amount of exercising affect the bone density, and if so, how?

A starting point is to read in the data and make a graph. With one quantitative and one categorical variable, the right kind of graph is a boxplot:

library(tidyverse)
my_url <- "http://ritsokiguess.site/datafiles/jumping.txt"
rats <- read_delim(my_url," ")
rats

# A tibble: 30 × 2
   group   density
   <chr>     <dbl>
 1 Control     611
 2 Control     621
 3 Control     614
 4 Control     593
 5 Control     593
 6 Control     653
 7 Control     600
 8 Control     554
 9 Control     603
10 Control     569
# ℹ 20 more rows
…
ksample(10, 3, grand_mean, gp_sd)

[1] 15.23404

Well, I guess that looks all right. So now let’s do this many times:

set.seed(457299)

tibble(sim = 1:1000) %>% 
  rowwise() %>% 
  mutate(rnge = ksample(10, 3, grand_mean, gp_sd)) -> ranges
ranges

# A tibble: 1,000 × 2
# Rowwise: 
     sim  rnge
   <int> <dbl>
 1     1  7.73
 2     2 25.1 
 3     3  3.45
 4     4 13.2 
 5     5 17.5 
 6     6 22.9 
 7     7 12.6 
 8     8 12.9 
 9     9 12.0 
10    10  2.92
# ℹ 990 more rows
…
