Why the rank sum test is also a waste of time
…
and the smaller of the two values in U is the test statistic. The smaller the test statistic is, the more significant (the smallest possible value is zero). In this case, the P-value is 0.2544, not significant.

Let’s do another one, where the two distributions have the same mean but different variances (so that the test should fail to reject):

What happens if one of the samples is more variable, even if the means and sample sizes are the same, so that the null hypothesis is still true? We should therefore reject 5% of the time still. Let’s do a simulation to find out:

tibble(sim = 1:10000) %>% 
  rowwise() %>% 
  mutate(my_sample = list(gen_sample(n = c(10, 10), mean = c(100, 100), sd = c(30, 5)))) %>% 
  mutate(my_test = list(wilcox.test(z ~ gp, data = my_sample))) %>% 
  mutate(p_val = my_test$p.value) -> d5
d5

# A tibble: 10,000 × 4
# Rowwise: 
     sim my_sample         my_test p_val
   <int> <list>            <list>  <dbl>
 1     1 <tibble [20 × 2]> <htest> 0.971
 2     2 <tibble [20 × 2]> <htest> 0.280
 3     3 <tibble [20 × 2]> <htest> 0.684
 4     4 <tibble [20 × 2]> <htest> 0.579
 5     5 <tibble [20 × 2]> <htest> 0.853
 6     6 <tibble [20 × 2]> <htest> 0.481
 7     7 <tibble [20 × 2]> <htest> 0.684
 8     8 <tibble [20 × 2]> <htest> 0.190
 9     9 <tibble [20 × 2]> <htest> 0.971
10    10 <tibble [20 × 2]> <htest> 0.247
# … with 9,990 more rows
…
because rnorm is vectorized, and for the x sample, R will draw one sampled value from each normal distribution, and then repeat the same values for the y sample. This is very much not what we want.

I used the same idea to draw my random chi-squared data later on:

tibble(df = c(3,6)) %>% 
  rowwise() %>% 
  mutate(z = list(rchisq(20, df))) %>% 
  unnest(z)

# A tibble: 40 × 2
      df      z
   <dbl>  <dbl>
 1     3  3.63 
 2     3  5.32 
 3     3  2.77 
 4     3 14.0  
 5     3  1.89 
 6     3  0.860
 7     3  1.55 
 8     3  5.57 
 9     3  6.85 
10     3  4.98 
# … with 30 more rows
…
